1991/04/03 CHRISTINE CONSTANTIN 686.333.719
1999/10/29 MONOLO PEREZ         618.681.494
2003/12/20 ALFREDO R. G.        618.633.888
1980/03/05 GEREMIAS TRULOC      878.254.144
1820/01/06 ALABASTRO CARBONEL   628.546.575
1952/10/08 RANDOMU RANDOMU      666.644.444
0001/21/06 SATANAS BELZEBÚ      666.666.666
0000/00/00 JEOHVÁ               000.000.000
1405/05/09 CLAROTA DINAMOTA     111.011.054
1550/12/11 FRANCO OSCAR         666.555.777
1650/10/15 FRANSITO HACKERSITO  472.554.154
1670/11/11 CARLOS EL CHINCHILLA 999.999.000
1844/01/02 JOJOJO JAJAJA        878.466.654
1945/12/12 YUJU JUDE            888.888.888
